0.2304699 0.1764085 0.7433 0.3747044 0.9521338
0.3079723 0.3698954 0.6101283 0.9470075 0.8169019
0.3886855 0.9764343 0.2945887 0.05465878 0.2645044
0.4402489 0.5454409 0.7394876 0.8158254 0.9401173
0.3055972 0.9160713 0.1412015 0.8069928 0.617843
0.269695 0.2904084 0.03913258 0.3367691 0.9876119
0.3936543 0.8004065 0.6897116 0.6716301 0.3487887
0.8521404 0.2221454 0.981573 0.3134114 0.2217261
0.5773409 0.94274 0.7128523 0.321648 0.3239322
0.4534384 0.0736163 0.6502315 0.5631286 0.1226419
0.8792681 0.5653252 0.3184376 0.9986654 0.1885859
0.3464514 0.9869292 0.9263616 0.4566628 0.5330391
